

  VALIDATION OF SHEET "Dia 1"

 ------------------------------------------

No errors were found in this sheet.

  VALIDATION OF SHEET "Dia 2"

 ------------------------------------------

No errors were found in this sheet.

  VALIDATION OF SHEET "Dia 3"

 ------------------------------------------

No errors were found in this sheet.

  VALIDATION OF SHEET "Dia 4"

 ------------------------------------------

No errors were found in this sheet.

  VALIDATION OF SHEET "Dia 5"

 ------------------------------------------

No errors were found in this sheet.

  VALIDATION OF SHEET "Dia 6"

 ------------------------------------------

No errors were found in this sheet.

  VALIDATION OF SHEET "Dia 7"

 ------------------------------------------

No errors were found in this sheet.

  VALIDATION OF SHEET "Dia 8"

 ------------------------------------------

No errors were found in this sheet.

  VALIDATION OF SHEET "Dia 9"

 ------------------------------------------

No errors were found in this sheet.

  VALIDATION OF SHEET "Dia 10"

 ------------------------------------------

No errors were found in this sheet.

  [1] ERROR: In (Dia 5, 2) The displacement's amplitudes (0.00068, 0.00483, 0.00512 m) exceed the allowed maximum (0.005 m).

  [2] ERROR: In (Dia 7, 2) The displacement's amplitudes (0.00227, 0.00396, 0.00589 m) exceed the allowed maximum (0.005 m).

  [3] ERROR: In (Dia 9, 2) The displacement's amplitudes (0.00694, 0.00531, 0.00294 m) exceed the allowed maximum (0.005 m).

  [4] ERROR: In (Dia 10, 2) The displacement's amplitudes (0.00815, 0.00131, 0.00269 m) exceed the allowed maximum (0.005 m).

  [5] ERROR: In (Dia 3, 3) The displacement's amplitudes (0.00133, 0.00649, 0.00302 m) exceed the allowed maximum (0.005 m).

  [6] ERROR: In (Dia 4, 3) The displacement's amplitudes (0.00052, 0.00772, 0.00289 m) exceed the allowed maximum (0.005 m).

  [7] ERROR: In (Dia 5, 3) The displacement's amplitudes (0.00155, 0.00624, 0.00173 m) exceed the allowed maximum (0.005 m).

  [8] ERROR: In (Dia 8, 3) The displacement's amplitudes (0.00615, 0.00083, 0.00363 m) exceed the allowed maximum (0.005 m).

  [9] ERROR: In (Dia 9, 3) The displacement's amplitudes (0.01203, 0.00058, 0.00115 m) exceed the allowed maximum (0.005 m).

  [10] ERROR: In (Dia 10, 3) The displacement's amplitudes (0.00751, 0.00002, 0.00835 m) exceed the allowed maximum (0.005 m).

  [11] ERROR: In (Dia 5, 4) The displacement's amplitudes (0.00608, 0.00562, 0.00053 m) exceed the allowed maximum (0.005 m).

  [12] ERROR: In (Dia 8, 4) The displacement's amplitudes (0.00507, 0.00469, 0.00244 m) exceed the allowed maximum (0.005 m).

  [13] ERROR: In (Dia 9, 4) The displacement's amplitudes (0.00948, 0.00183, 0.00450 m) exceed the allowed maximum (0.005 m).

  [14] ERROR: In (Dia 10, 4) The displacement's amplitudes (0.00570, 0.00696, 0.00698 m) exceed the allowed maximum (0.005 m).

  [15] ERROR: In (Dia 7, 5) The displacement's amplitudes (0.00443, 0.00143, 0.00809 m) exceed the allowed maximum (0.005 m).

  [16] ERROR: In (Dia 8, 5) The displacement's amplitudes (0.00196, 0.00158, 0.01137 m) exceed the allowed maximum (0.005 m).

  [17] ERROR: In (Dia 9, 5) The displacement's amplitudes (0.00893, 0.00099, 0.00052 m) exceed the allowed maximum (0.005 m).

  [18] ERROR: In (Dia 10, 5) The displacement's amplitudes (0.00536, 0.00249, 0.00537 m) exceed the allowed maximum (0.005 m).

  [19] ERROR: In (Dia 3, 6) The displacement's amplitudes (0.00143, 0.00696, 0.00319 m) exceed the allowed maximum (0.005 m).

  [20] ERROR: In (Dia 4, 6) The displacement's amplitudes (0.00319, 0.00442, 0.00957 m) exceed the allowed maximum (0.005 m).

  [21] ERROR: In (Dia 6, 6) The displacement's amplitudes (0.00319, 0.00751, 0.00637 m) exceed the allowed maximum (0.005 m).

  [22] ERROR: In (Dia 9, 6) The displacement's amplitudes (0.00163, 0.00500, 0.00086 m) exceed the allowed maximum (0.005 m).

  [23] ERROR: In (Dia 10, 6) The displacement's amplitudes (0.00351, 0.01143, 0.00694 m) exceed the allowed maximum (0.005 m).

  [24] ERROR: In (Dia 2, 7) The displacement's amplitudes (0.00068, 0.00670, 0.00003 m) exceed the allowed maximum (0.005 m).

  [25] ERROR: In (Dia 3, 7) The displacement's amplitudes (0.00240, 0.00821, 0.00138 m) exceed the allowed maximum (0.005 m).

  [26] ERROR: In (Dia 4, 7) The displacement's amplitudes (0.00062, 0.00735, 0.00092 m) exceed the allowed maximum (0.005 m).

  [27] ERROR: In (Dia 5, 7) The displacement's amplitudes (0.00115, 0.00525, 0.00336 m) exceed the allowed maximum (0.005 m).

  [28] ERROR: In (Dia 7, 7) The displacement's amplitudes (0.00215, 0.00315, 0.00791 m) exceed the allowed maximum (0.005 m).

  [29] ERROR: In (Dia 8, 7) The displacement's amplitudes (0.00243, 0.00825, 0.00413 m) exceed the allowed maximum (0.005 m).

  [30] ERROR: In (Dia 4, 8) The displacement's amplitudes (0.00216, 0.00259, 0.00924 m) exceed the allowed maximum (0.005 m).

  [31] ERROR: In (Dia 5, 8) The displacement's amplitudes (0.00070, 0.00554, 0.00423 m) exceed the allowed maximum (0.005 m).

  [32] ERROR: In (Dia 7, 8) The displacement's amplitudes (0.00277, 0.00573, 0.00165 m) exceed the allowed maximum (0.005 m).

  [33] ERROR: In (Dia 8, 8) The displacement's amplitudes (0.00198, 0.00912, 0.00681 m) exceed the allowed maximum (0.005 m).

  [34] ERROR: In (Dia 9, 8) The displacement's amplitudes (0.00094, 0.00763, 0.00540 m) exceed the allowed maximum (0.005 m).

  [35] ERROR: In (Dia 10, 8) The displacement's amplitudes (0.00957, 0.00757, 0.00177 m) exceed the allowed maximum (0.005 m).

  [36] ERROR: In (Dia 5, 9) The displacement's amplitudes (0.00162, 0.00074, 0.00695 m) exceed the allowed maximum (0.005 m).

  [37] ERROR: In (Dia 7, 9) The displacement's amplitudes (0.00607, 0.00218, 0.00554 m) exceed the allowed maximum (0.005 m).

  [38] ERROR: In (Dia 8, 9) The displacement's amplitudes (0.00232, 0.00005, 0.00905 m) exceed the allowed maximum (0.005 m).

  [39] ERROR: In (Dia 10, 9) The displacement's amplitudes (0.00115, 0.00129, 0.00528 m) exceed the allowed maximum (0.005 m).

  [40] ERROR: In (Dia 2, 10) The displacement's amplitudes (0.00003, 0.00519, 0.00252 m) exceed the allowed maximum (0.005 m).

  [41] ERROR: In (Dia 3, 10) The displacement's amplitudes (0.00128, 0.00784, 0.00059 m) exceed the allowed maximum (0.005 m).

  [42] ERROR: In (Dia 4, 10) The displacement's amplitudes (0.00164, 0.00611, 0.00112 m) exceed the allowed maximum (0.005 m).

  [43] ERROR: In (Dia 5, 10) The displacement's amplitudes (0.00087, 0.00495, 0.00784 m) exceed the allowed maximum (0.005 m).

  [44] ERROR: In (Dia 7, 10) The displacement's amplitudes (0.00335, 0.00238, 0.00505 m) exceed the allowed maximum (0.005 m).

  [45] ERROR: In (Dia 10, 10) The displacement's amplitudes (0.00407, 0.00719, 0.00212 m) exceed the allowed maximum (0.005 m).

  [46] ERROR: In (Dia 6, 11) The displacement's amplitudes (0.00660, 0.00148, 0.00235 m) exceed the allowed maximum (0.005 m).

  [47] ERROR: In (Dia 9, 11) The displacement's amplitudes (0.00540, 0.00091, 0.00432 m) exceed the allowed maximum (0.005 m).

  [48] ERROR: In (Dia 10, 11) The displacement's amplitudes (0.00551, 0.00049, 0.00207 m) exceed the allowed maximum (0.005 m).

  [49] ERROR: In (Dia 3, 12) The displacement's amplitudes (0.00081, 0.00762, 0.00015 m) exceed the allowed maximum (0.005 m).

  [50] ERROR: In (Dia 4, 12) The displacement's amplitudes (0.00469, 0.00312, 0.00646 m) exceed the allowed maximum (0.005 m).

  [51] ERROR: In (Dia 9, 12) The displacement's amplitudes (0.00245, 0.00678, 0.00665 m) exceed the allowed maximum (0.005 m).

  [52] ERROR: In (Dia 10, 12) The displacement's amplitudes (0.00559, 0.00508, 0.01193 m) exceed the allowed maximum (0.005 m).

  [53] ERROR: In (Dia 2, 13) The displacement's amplitudes (0.00185, 0.00566, 0.00359 m) exceed the allowed maximum (0.005 m).

  [54] ERROR: In (Dia 7, 13) The displacement's amplitudes (0.00508, 0.00190, 0.00275 m) exceed the allowed maximum (0.005 m).

  [55] ERROR: In (Dia 9, 13) The displacement's amplitudes (0.00560, 0.00056, 0.00512 m) exceed the allowed maximum (0.005 m).

  [56] ERROR: In (Dia 10, 14) The displacement's amplitudes (0.00666, 0.00525, 0.00071 m) exceed the allowed maximum (0.005 m).

  [57] ERROR: In (Dia 6, 15) The displacement's amplitudes (0.00185, 0.00607, 0.00818 m) exceed the allowed maximum (0.005 m).

  [58] ERROR: In (Dia 8, 15) The displacement's amplitudes (0.00915, 0.00180, 0.00256 m) exceed the allowed maximum (0.005 m).

  [59] ERROR: In (Dia 9, 15) The displacement's amplitudes (0.00491, 0.01294, 0.00086 m) exceed the allowed maximum (0.005 m).

  [60] ERROR: In (Dia 10, 15) The displacement's amplitudes (0.00499, 0.01118, 0.00616 m) exceed the allowed maximum (0.005 m).

  [61] ERROR: In (Dia 2, 16) The displacement's amplitudes (0.00022, 0.00013, 0.00527 m) exceed the allowed maximum (0.005 m).

  [62] ERROR: In (Dia 3, 16) The displacement's amplitudes (0.00103, 0.00158, 0.00675 m) exceed the allowed maximum (0.005 m).

  [63] ERROR: In (Dia 8, 16) The displacement's amplitudes (0.00071, 0.00608, 0.00723 m) exceed the allowed maximum (0.005 m).

  [64] ERROR: In (Dia 10, 16) The displacement's amplitudes (0.01073, 0.00140, 0.00026 m) exceed the allowed maximum (0.005 m).

  [65] ERROR: In (Dia 5, 17) The displacement's amplitudes (0.00119, 0.00506, 0.00376 m) exceed the allowed maximum (0.005 m).

  [66] ERROR: In (Dia 6, 17) The displacement's amplitudes (0.01009, 0.00212, 0.00152 m) exceed the allowed maximum (0.005 m).

  [67] ERROR: In (Dia 7, 17) The displacement's amplitudes (0.00587, 0.00165, 0.00386 m) exceed the allowed maximum (0.005 m).

  [68] ERROR: In (Dia 8, 17) The displacement's amplitudes (0.00608, 0.00239, 0.00452 m) exceed the allowed maximum (0.005 m).

  [69] ERROR: In (Dia 9, 17) The displacement's amplitudes (0.00558, 0.00179, 0.00545 m) exceed the allowed maximum (0.005 m).

  [70] ERROR: In (Dia 2, 18) The displacement's amplitudes (0.00596, 0.00052, 0.00046 m) exceed the allowed maximum (0.005 m).

  [71] ERROR: In (Dia 3, 18) The displacement's amplitudes (0.00593, 0.00135, 0.00092 m) exceed the allowed maximum (0.005 m).

  [72] ERROR: In (Dia 10, 18) The displacement's amplitudes (0.00020, 0.00129, 0.00605 m) exceed the allowed maximum (0.005 m).

  [73] ERROR: In (Dia 4, 19) The displacement's amplitudes (0.00706, 0.00393, 0.00619 m) exceed the allowed maximum (0.005 m).

  [74] ERROR: In (Dia 6, 19) The displacement's amplitudes (0.00523, 0.00405, 0.00747 m) exceed the allowed maximum (0.005 m).

  [75] ERROR: In (Dia 3, 20) The displacement's amplitudes (0.00434, 0.00546, 0.00501 m) exceed the allowed maximum (0.005 m).

  [76] ERROR: In (Dia 7, 20) The displacement's amplitudes (0.00176, 0.00146, 0.01538 m) exceed the allowed maximum (0.005 m).

  [77] ERROR: In (Dia 8, 20) The displacement's amplitudes (0.00332, 0.00490, 0.00828 m) exceed the allowed maximum (0.005 m).

  [78] ERROR: In (Dia 9, 20) The displacement's amplitudes (0.00522, 0.00257, 0.00020 m) exceed the allowed maximum (0.005 m).

  [79] ERROR: In (Dia 10, 20) The displacement's amplitudes (0.00513, 0.00290, 0.00595 m) exceed the allowed maximum (0.005 m).

  [80] ERROR: In (Dia 6, 21) The displacement's amplitudes (0.00266, 0.00153, 0.00637 m) exceed the allowed maximum (0.005 m).

  [81] ERROR: In (Dia 9, 21) The displacement's amplitudes (0.00344, 0.00325, 0.00599 m) exceed the allowed maximum (0.005 m).

  [82] ERROR: In (Dia 10, 21) The displacement's amplitudes (0.00486, 0.00299, 0.00543 m) exceed the allowed maximum (0.005 m).

  [83] ERROR: In (Dia 2, 22) The displacement's amplitudes (0.00224, 0.00157, 0.00853 m) exceed the allowed maximum (0.005 m).

  [84] ERROR: In (Dia 3, 22) The displacement's amplitudes (0.00194, 0.00430, 0.01002 m) exceed the allowed maximum (0.005 m).

  [85] ERROR: In (Dia 6, 22) The displacement's amplitudes (0.00849, 0.00186, 0.00540 m) exceed the allowed maximum (0.005 m).

  [86] ERROR: In (Dia 7, 22) The displacement's amplitudes (0.00201, 0.00232, 0.00663 m) exceed the allowed maximum (0.005 m).

  [87] ERROR: In (Dia 9, 22) The displacement's amplitudes (0.00441, 0.00324, 0.00587 m) exceed the allowed maximum (0.005 m).

  [88] ERROR: In (Dia 2, 23) The displacement's amplitudes (0.00219, 0.00655, 0.00339 m) exceed the allowed maximum (0.005 m).

  [89] ERROR: In (Dia 3, 23) The displacement's amplitudes (0.00435, 0.00797, 0.00039 m) exceed the allowed maximum (0.005 m).

  [90] ERROR: In (Dia 4, 23) The displacement's amplitudes (0.00275, 0.00526, 0.00543 m) exceed the allowed maximum (0.005 m).

  [91] ERROR: In (Dia 5, 23) The displacement's amplitudes (0.00501, 0.00572, 0.00225 m) exceed the allowed maximum (0.005 m).

  [92] ERROR: In (Dia 2, 24) The displacement's amplitudes (0.00224, 0.00024, 0.00620 m) exceed the allowed maximum (0.005 m).

  [93] ERROR: In (Dia 3, 24) The displacement's amplitudes (0.00284, 0.00209, 0.01224 m) exceed the allowed maximum (0.005 m).

  [94] ERROR: In (Dia 4, 24) The displacement's amplitudes (0.00043, 0.00114, 0.00519 m) exceed the allowed maximum (0.005 m).

  [95] ERROR: In (Dia 6, 24) The displacement's amplitudes (0.00724, 0.00354, 0.00546 m) exceed the allowed maximum (0.005 m).

  [96] ERROR: In (Dia 7, 24) The displacement's amplitudes (0.00419, 0.00538, 0.00767 m) exceed the allowed maximum (0.005 m).

  [97] ERROR: In (Dia 8, 24) The displacement's amplitudes (0.00286, 0.00675, 0.00615 m) exceed the allowed maximum (0.005 m).

  [98] ERROR: In (Dia 9, 24) The displacement's amplitudes (0.00839, 0.00461, 0.00308 m) exceed the allowed maximum (0.005 m).

  [99] ERROR: In (Dia 10, 24) The displacement's amplitudes (0.01019, 0.00022, 0.00309 m) exceed the allowed maximum (0.005 m).

  [100] ERROR: In (Dia 3, 25) The displacement's amplitudes (0.00635, 0.00180, 0.00314 m) exceed the allowed maximum (0.005 m).

  [101] ERROR: In (Dia 6, 25) The displacement's amplitudes (0.00416, 0.00519, 0.00573 m) exceed the allowed maximum (0.005 m).

  [102] ERROR: In (Dia 7, 25) The displacement's amplitudes (0.00846, 0.00231, 0.00159 m) exceed the allowed maximum (0.005 m).

  [103] ERROR: In (Dia 8, 25) The displacement's amplitudes (0.00538, 0.00252, 0.00338 m) exceed the allowed maximum (0.005 m).

  [104] ERROR: In (Dia 9, 25) The displacement's amplitudes (0.00019, 0.00978, 0.00102 m) exceed the allowed maximum (0.005 m).

  [105] ERROR: In (Dia 3, 26) The displacement's amplitudes (0.00372, 0.01075, 0.00049 m) exceed the allowed maximum (0.005 m).

  [106] ERROR: In (Dia 4, 26) The displacement's amplitudes (0.00093, 0.00586, 0.00209 m) exceed the allowed maximum (0.005 m).

  [107] ERROR: In (Dia 7, 26) The displacement's amplitudes (0.00177, 0.00534, 0.01002 m) exceed the allowed maximum (0.005 m).

  [108] ERROR: In (Dia 9, 26) The displacement's amplitudes (0.00772, 0.00082, 0.01062 m) exceed the allowed maximum (0.005 m).

  [109] ERROR: In (Dia 2, 27) The displacement's amplitudes (0.00041, 0.00580, 0.00297 m) exceed the allowed maximum (0.005 m).

  [110] ERROR: In (Dia 3, 27) The displacement's amplitudes (0.00344, 0.00650, 0.00135 m) exceed the allowed maximum (0.005 m).

  [111] ERROR: In (Dia 4, 27) The displacement's amplitudes (0.00259, 0.00149, 0.00660 m) exceed the allowed maximum (0.005 m).

  [112] ERROR: In (Dia 5, 27) The displacement's amplitudes (0.00242, 0.00600, 0.00658 m) exceed the allowed maximum (0.005 m).

  [113] ERROR: In (Dia 6, 27) The displacement's amplitudes (0.00490, 0.00825, 0.00392 m) exceed the allowed maximum (0.005 m).

  [114] ERROR: In (Dia 8, 27) The displacement's amplitudes (0.00316, 0.00623, 0.00195 m) exceed the allowed maximum (0.005 m).

  [115] ERROR: In (Dia 10, 27) The displacement's amplitudes (0.00493, 0.00408, 0.00686 m) exceed the allowed maximum (0.005 m).

  [116] ERROR: In (Dia 2, 28) The displacement's amplitudes (0.00050, 0.00505, 0.00090 m) exceed the allowed maximum (0.005 m).

  [117] ERROR: In (Dia 6, 28) The displacement's amplitudes (0.00009, 0.00317, 0.00606 m) exceed the allowed maximum (0.005 m).

  [118] ERROR: In (Dia 7, 28) The displacement's amplitudes (0.00190, 0.00849, 0.00192 m) exceed the allowed maximum (0.005 m).

  [119] ERROR: In (Dia 8, 28) The displacement's amplitudes (0.00802, 0.00459, 0.00147 m) exceed the allowed maximum (0.005 m).

  [120] ERROR: In (Dia 10, 28) The displacement's amplitudes (0.00414, 0.00147, 0.00650 m) exceed the allowed maximum (0.005 m).

  [121] ERROR: In (Dia 2, 29) The displacement's amplitudes (0.00112, 0.00506, 0.00277 m) exceed the allowed maximum (0.005 m).

  [122] ERROR: In (Dia 3, 29) The displacement's amplitudes (0.00016, 0.00400, 0.00527 m) exceed the allowed maximum (0.005 m).

  [123] ERROR: In (Dia 5, 29) The displacement's amplitudes (0.00008, 0.00134, 0.00615 m) exceed the allowed maximum (0.005 m).

  [124] ERROR: In (Dia 9, 29) The displacement's amplitudes (0.00707, 0.00309, 0.00033 m) exceed the allowed maximum (0.005 m).

  [125] ERROR: In (Dia 10, 29) The displacement's amplitudes (0.00302, 0.00536, 0.00141 m) exceed the allowed maximum (0.005 m).

  [126] ERROR: In (Dia 3, 30) The displacement's amplitudes (0.00547, 0.00699, 0.00590 m) exceed the allowed maximum (0.005 m).

  [127] ERROR: In (Dia 4, 30) The displacement's amplitudes (0.00822, 0.00785, 0.00072 m) exceed the allowed maximum (0.005 m).

  [128] ERROR: In (Dia 6, 30) The displacement's amplitudes (0.00616, 0.00174, 0.00312 m) exceed the allowed maximum (0.005 m).

  [129] ERROR: In (Dia 8, 30) The displacement's amplitudes (0.00653, 0.00271, 0.00097 m) exceed the allowed maximum (0.005 m).

  [130] ERROR: In (Dia 2, 31) The displacement's amplitudes (0.00341, 0.00586, 0.00409 m) exceed the allowed maximum (0.005 m).

  [131] ERROR: In (Dia 3, 31) The displacement's amplitudes (0.00474, 0.00662, 0.00095 m) exceed the allowed maximum (0.005 m).

  [132] ERROR: In (Dia 6, 31) The displacement's amplitudes (0.00371, 0.00584, 0.00613 m) exceed the allowed maximum (0.005 m).

  [133] ERROR: In (Dia 10, 31) The displacement's amplitudes (0.00172, 0.00644, 0.00068 m) exceed the allowed maximum (0.005 m).

  [134] ERROR: In (Dia 3, 32) The displacement's amplitudes (0.00015, 0.00632, 0.00401 m) exceed the allowed maximum (0.005 m).

  [135] ERROR: In (Dia 5, 32) The displacement's amplitudes (0.00071, 0.00014, 0.00510 m) exceed the allowed maximum (0.005 m).

  [136] ERROR: In (Dia 7, 32) The displacement's amplitudes (0.00137, 0.00715, 0.00968 m) exceed the allowed maximum (0.005 m).

  [137] ERROR: In (Dia 8, 32) The displacement's amplitudes (0.00080, 0.00630, 0.00572 m) exceed the allowed maximum (0.005 m).

  [138] ERROR: In (Dia 2, 33) The displacement's amplitudes (0.00359, 0.00038, 0.00661 m) exceed the allowed maximum (0.005 m).

  [139] ERROR: In (Dia 3, 33) The displacement's amplitudes (0.00371, 0.00219, 0.00738 m) exceed the allowed maximum (0.005 m).

  [140] ERROR: In (Dia 7, 33) The displacement's amplitudes (0.00751, 0.00091, 0.00094 m) exceed the allowed maximum (0.005 m).

  [141] ERROR: In (Dia 3, 34) The displacement's amplitudes (0.00546, 0.00314, 0.00750 m) exceed the allowed maximum (0.005 m).

  [142] ERROR: In (Dia 4, 34) The displacement's amplitudes (0.00236, 0.01343, 0.00082 m) exceed the allowed maximum (0.005 m).

  [143] ERROR: In (Dia 5, 34) The displacement's amplitudes (0.00447, 0.00645, 0.00548 m) exceed the allowed maximum (0.005 m).

  [144] ERROR: In (Dia 7, 34) The displacement's amplitudes (0.00135, 0.00272, 0.00562 m) exceed the allowed maximum (0.005 m).

  [145] ERROR: In (Dia 8, 34) The displacement's amplitudes (0.00376, 0.00403, 0.00744 m) exceed the allowed maximum (0.005 m).

  [146] ERROR: In (Dia 9, 34) The displacement's amplitudes (0.00231, 0.00700, 0.00309 m) exceed the allowed maximum (0.005 m).

  [147] ERROR: In (Dia 10, 34) The displacement's amplitudes (0.00367, 0.00161, 0.00563 m) exceed the allowed maximum (0.005 m).

  [148] ERROR: In (Dia 3, 35) The displacement's amplitudes (0.00264, 0.00524, 0.00013 m) exceed the allowed maximum (0.005 m).

  [149] ERROR: In (Dia 4, 35) The displacement's amplitudes (0.01251, 0.01074, 0.00066 m) exceed the allowed maximum (0.005 m).

  [150] ERROR: In (Dia 5, 35) The displacement's amplitudes (0.00862, 0.00436, 0.00159 m) exceed the allowed maximum (0.005 m).

  [151] ERROR: In (Dia 6, 35) The displacement's amplitudes (0.00791, 0.00219, 0.00111 m) exceed the allowed maximum (0.005 m).

  [152] ERROR: In (Dia 7, 35) The displacement's amplitudes (0.00441, 0.00543, 0.00661 m) exceed the allowed maximum (0.005 m).

  [153] ERROR: In (Dia 8, 35) The displacement's amplitudes (0.00651, 0.00090, 0.00264 m) exceed the allowed maximum (0.005 m).

  [154] ERROR: In (Dia 9, 35) The displacement's amplitudes (0.01113, 0.00533, 0.00153 m) exceed the allowed maximum (0.005 m).

  [155] ERROR: In (Dia 5, 36) The displacement's amplitudes (0.00861, 0.00101, 0.00506 m) exceed the allowed maximum (0.005 m).

  [156] ERROR: In (Dia 7, 36) The displacement's amplitudes (0.00506, 0.00273, 0.00386 m) exceed the allowed maximum (0.005 m).

  [157] ERROR: In (Dia 8, 36) The displacement's amplitudes (0.00775, 0.00731, 0.00669 m) exceed the allowed maximum (0.005 m).

  [158] ERROR: In (Dia 9, 36) The displacement's amplitudes (0.00509, 0.00442, 0.00016 m) exceed the allowed maximum (0.005 m).

  [159] ERROR: In (Dia 6, 37) The displacement's amplitudes (0.00087, 0.00649, 0.00017 m) exceed the allowed maximum (0.005 m).

  [160] ERROR: In (Dia 7, 37) The displacement's amplitudes (0.00651, 0.00043, 0.00417 m) exceed the allowed maximum (0.005 m).

  [161] ERROR: In (Dia 9, 37) The displacement's amplitudes (0.00557, 0.00160, 0.00020 m) exceed the allowed maximum (0.005 m).

  [162] ERROR: In (Dia 10, 37) The displacement's amplitudes (0.00510, 0.00483, 0.00312 m) exceed the allowed maximum (0.005 m).

  [163] ERROR: In (Dia 5, 38) The displacement's amplitudes (0.00858, 0.00047, 0.00405 m) exceed the allowed maximum (0.005 m).

  [164] ERROR: In (Dia 9, 38) The displacement's amplitudes (0.00386, 0.00620, 0.00332 m) exceed the allowed maximum (0.005 m).

  [165] ERROR: In (Dia 6, 39) The displacement's amplitudes (0.00542, 0.00511, 0.00529 m) exceed the allowed maximum (0.005 m).

  [166] ERROR: In (Dia 7, 39) The displacement's amplitudes (0.00584, 0.00071, 0.00625 m) exceed the allowed maximum (0.005 m).

  [167] ERROR: In (Dia 10, 39) The displacement's amplitudes (0.00612, 0.00220, 0.00145 m) exceed the allowed maximum (0.005 m).

  [168] ERROR: In (Dia 2, 40) The displacement's amplitudes (0.00206, 0.00270, 0.00563 m) exceed the allowed maximum (0.005 m).

  [169] ERROR: In (Dia 8, 40) The displacement's amplitudes (0.00036, 0.00635, 0.00132 m) exceed the allowed maximum (0.005 m).

  [170] ERROR: In (Dia 9, 40) The displacement's amplitudes (0.00062, 0.00001, 0.00572 m) exceed the allowed maximum (0.005 m).

  [171] ERROR: In (Dia 7, 41) The displacement's amplitudes (0.00061, 0.00427, 0.00553 m) exceed the allowed maximum (0.005 m).

  [172] ERROR: In (Dia 9, 41) The displacement's amplitudes (0.00785, 0.00059, 0.00263 m) exceed the allowed maximum (0.005 m).

  [173] ERROR: In (Dia 10, 41) The displacement's amplitudes (0.00155, 0.00027, 0.00700 m) exceed the allowed maximum (0.005 m).

  [174] ERROR: In (Dia 3, 42) The displacement's amplitudes (0.00691, 0.00049, 0.00079 m) exceed the allowed maximum (0.005 m).

  [175] ERROR: In (Dia 5, 42) The displacement's amplitudes (0.00612, 0.00735, 0.00595 m) exceed the allowed maximum (0.005 m).

  [176] ERROR: In (Dia 6, 42) The displacement's amplitudes (0.00329, 0.00513, 0.00346 m) exceed the allowed maximum (0.005 m).

  [177] ERROR: In (Dia 7, 42) The displacement's amplitudes (0.00080, 0.00286, 0.00589 m) exceed the allowed maximum (0.005 m).

  [178] ERROR: In (Dia 8, 42) The displacement's amplitudes (0.00179, 0.00261, 0.00599 m) exceed the allowed maximum (0.005 m).

  [179] ERROR: In (Dia 2, 43) The displacement's amplitudes (0.00275, 0.00666, 0.00079 m) exceed the allowed maximum (0.005 m).

  [180] ERROR: In (Dia 3, 43) The displacement's amplitudes (0.00529, 0.00520, 0.00087 m) exceed the allowed maximum (0.005 m).

  [181] ERROR: In (Dia 5, 43) The displacement's amplitudes (0.00824, 0.00246, 0.00174 m) exceed the allowed maximum (0.005 m).

  [182] ERROR: In (Dia 7, 43) The displacement's amplitudes (0.00475, 0.00289, 0.00559 m) exceed the allowed maximum (0.005 m).

  [183] ERROR: In (Dia 8, 43) The displacement's amplitudes (0.00876, 0.00602, 0.00723 m) exceed the allowed maximum (0.005 m).

  [184] ERROR: In (Dia 2, 44) The displacement's amplitudes (0.00020, 0.00123, 0.00906 m) exceed the allowed maximum (0.005 m).

  [185] ERROR: In (Dia 3, 44) The displacement's amplitudes (0.00225, 0.00228, 0.01083 m) exceed the allowed maximum (0.005 m).

  [186] ERROR: In (Dia 9, 44) The displacement's amplitudes (0.00346, 0.00024, 0.00689 m) exceed the allowed maximum (0.005 m).

  [187] ERROR: In (Dia 10, 44) The displacement's amplitudes (0.00650, 0.00022, 0.00170 m) exceed the allowed maximum (0.005 m).

  [188] ERROR: In (Dia 2, 45) The displacement's amplitudes (0.00373, 0.00526, 0.00650 m) exceed the allowed maximum (0.005 m).

  [189] ERROR: In (Dia 3, 45) The displacement's amplitudes (0.00012, 0.00488, 0.00734 m) exceed the allowed maximum (0.005 m).

  [190] ERROR: In (Dia 4, 45) The displacement's amplitudes (0.00671, 0.00296, 0.00244 m) exceed the allowed maximum (0.005 m).

  [191] ERROR: In (Dia 9, 45) The displacement's amplitudes (0.00838, 0.00344, 0.00199 m) exceed the allowed maximum (0.005 m).

  [192] ERROR: In (Dia 10, 45) The displacement's amplitudes (0.00459, 0.00075, 0.00781 m) exceed the allowed maximum (0.005 m).

  [193] ERROR: In (Dia 2, 46) The displacement's amplitudes (0.00035, 0.00513, 0.00371 m) exceed the allowed maximum (0.005 m).

  [194] ERROR: In (Dia 8, 46) The displacement's amplitudes (0.00760, 0.00087, 0.00193 m) exceed the allowed maximum (0.005 m).

  [195] ERROR: In (Dia 10, 46) The displacement's amplitudes (0.00331, 0.00310, 0.00719 m) exceed the allowed maximum (0.005 m).

  [196] ERROR: In (Dia 2, 47) The displacement's amplitudes (0.00668, 0.00114, 0.00391 m) exceed the allowed maximum (0.005 m).

  [197] ERROR: In (Dia 3, 47) The displacement's amplitudes (0.00970, 0.00221, 0.00091 m) exceed the allowed maximum (0.005 m).

  [198] ERROR: In (Dia 4, 47) The displacement's amplitudes (0.00405, 0.00673, 0.00165 m) exceed the allowed maximum (0.005 m).

  [199] ERROR: In (Dia 3, 48) The displacement's amplitudes (0.00713, 0.00171, 0.00087 m) exceed the allowed maximum (0.005 m).

  [200] ERROR: In (Dia 4, 48) The displacement's amplitudes (0.00078, 0.00515, 0.00039 m) exceed the allowed maximum (0.005 m).

  [201] ERROR: In (Dia 5, 48) The displacement's amplitudes (0.00899, 0.00736, 0.00328 m) exceed the allowed maximum (0.005 m).

  [202] ERROR: In (Dia 6, 48) The displacement's amplitudes (0.00521, 0.00571, 0.00521 m) exceed the allowed maximum (0.005 m).

  [203] ERROR: In (Dia 7, 48) The displacement's amplitudes (0.00267, 0.00566, 0.00803 m) exceed the allowed maximum (0.005 m).

  [204] ERROR: In (Dia 8, 48) The displacement's amplitudes (0.00122, 0.00764, 0.00548 m) exceed the allowed maximum (0.005 m).

  [205] ERROR: In (Dia 9, 48) The displacement's amplitudes (0.00220, 0.00775, 0.00579 m) exceed the allowed maximum (0.005 m).

  [206] ERROR: In (Dia 10, 48) The displacement's amplitudes (0.00048, 0.00064, 0.00704 m) exceed the allowed maximum (0.005 m).

  [207] ERROR: In (Dia 3, 49) The displacement's amplitudes (0.00509, 0.00238, 0.00357 m) exceed the allowed maximum (0.005 m).

  [208] ERROR: In (Dia 5, 49) The displacement's amplitudes (0.00880, 0.00667, 0.00196 m) exceed the allowed maximum (0.005 m).

  [209] ERROR: In (Dia 6, 49) The displacement's amplitudes (0.00373, 0.00647, 0.00384 m) exceed the allowed maximum (0.005 m).

  [210] ERROR: In (Dia 8, 49) The displacement's amplitudes (0.00555, 0.00633, 0.00308 m) exceed the allowed maximum (0.005 m).

  [211] ERROR: In (Dia 9, 49) The displacement's amplitudes (0.00697, 0.00013, 0.00039 m) exceed the allowed maximum (0.005 m).

  [212] ERROR: In (Dia 3, 50) The displacement's amplitudes (0.00540, 0.00575, 0.00027 m) exceed the allowed maximum (0.005 m).

  [213] ERROR: In (Dia 4, 50) The displacement's amplitudes (0.00269, 0.00372, 0.00704 m) exceed the allowed maximum (0.005 m).

  [214] ERROR: In (Dia 5, 50) The displacement's amplitudes (0.00100, 0.00102, 0.00825 m) exceed the allowed maximum (0.005 m).

  [215] ERROR: In (Dia 6, 50) The displacement's amplitudes (0.00036, 0.00368, 0.00943 m) exceed the allowed maximum (0.005 m).

  [216] ERROR: In (Dia 7, 50) The displacement's amplitudes (0.00325, 0.00835, 0.00154 m) exceed the allowed maximum (0.005 m).

  [217] ERROR: In (Dia 8, 50) The displacement's amplitudes (0.00053, 0.00318, 0.00614 m) exceed the allowed maximum (0.005 m).

  [218] ERROR: In (Dia 5, 51) The displacement's amplitudes (0.00219, 0.00615, 0.00263 m) exceed the allowed maximum (0.005 m).

  [219] ERROR: In (Dia 6, 51) The displacement's amplitudes (0.00428, 0.00930, 0.00170 m) exceed the allowed maximum (0.005 m).

  [220] ERROR: In (Dia 8, 51) The displacement's amplitudes (0.00489, 0.00178, 0.00692 m) exceed the allowed maximum (0.005 m).

  [221] ERROR: In (Dia 10, 51) The displacement's amplitudes (0.00214, 0.00220, 0.00651 m) exceed the allowed maximum (0.005 m).

  [222] ERROR: In (Dia 8, 52) The displacement's amplitudes (0.00519, 0.00585, 0.00659 m) exceed the allowed maximum (0.005 m).

  [223] ERROR: In (Dia 4, 53) The displacement's amplitudes (0.00211, 0.00512, 0.00058 m) exceed the allowed maximum (0.005 m).

  [224] ERROR: In (Dia 6, 53) The displacement's amplitudes (0.00117, 0.00924, 0.00707 m) exceed the allowed maximum (0.005 m).

  [225] ERROR: In (Dia 10, 53) The displacement's amplitudes (0.00238, 0.00590, 0.00133 m) exceed the allowed maximum (0.005 m).

  [226] ERROR: In (Dia 3, 54) The displacement's amplitudes (0.00561, 0.00289, 0.00113 m) exceed the allowed maximum (0.005 m).

  [227] ERROR: In (Dia 7, 54) The displacement's amplitudes (0.00559, 0.00019, 0.00388 m) exceed the allowed maximum (0.005 m).

  [228] ERROR: In (Dia 8, 54) The displacement's amplitudes (0.00550, 0.00632, 0.00425 m) exceed the allowed maximum (0.005 m).

  [229] ERROR: In (Dia 9, 54) The displacement's amplitudes (0.00388, 0.00510, 0.00093 m) exceed the allowed maximum (0.005 m).

  [230] ERROR: In (Dia 5, 55) The displacement's amplitudes (0.00137, 0.00628, 0.00299 m) exceed the allowed maximum (0.005 m).

  [231] ERROR: In (Dia 8, 55) The displacement's amplitudes (0.00203, 0.00421, 0.00936 m) exceed the allowed maximum (0.005 m).