"Node ID",32318
"Gateway ID",21358
"Model","LS-G6-LASER"
"Hw version",
"Fw version",
"Location Lat",
"Location Lon",
"Created time","2021-03-01 01:00:26"
"Timezone","America/Santiago"
"Date-and-time","Distance-32318","SignalStrength-32318","Gain-32318","Temperature-32318","DistanceWithOffset-32318",
"2021-03-17 01:00:00",39.7101,1330,,22.5
